AKT	AKT	0	0	0
AKT	ERK	0	0	0
AKT	GSK3B	0.73093	-0.055251	1.3485
AKT	IGFIR	0	0	0
AKT	IKKB	0.72908	-0.077177	1.3275
AKT	IRS1	0.5464	-0.035829	1.007
AKT	MEK	0.50889	-0.079073	1.1195
AKT	p70S6K	0.73267	0.14979	1.2253
ERK	AKT	0.79759	-0.68458	1.4878
ERK	ERK	0	0	0
ERK	GSK3B	0.75484	0.34017	1.3842
ERK	IGFIR	0	0	0
ERK	IKKB	0.77426	-0.7426	1.4525
ERK	IRS1	0.56453	-0.13692	1.0424
ERK	MEK	0.50258	0.1232	1.1395
ERK	p70S6K	0.75854	0.47646	1.2817
GSK3B	AKT	0	0	0
GSK3B	ERK	0	0	0
GSK3B	GSK3B	0	0	0
GSK3B	IGFIR	0	0	0
GSK3B	IKKB	0	0	0
GSK3B	IRS1	0	0	0
GSK3B	MEK	0	0	0
GSK3B	p70S6K	0	0	0
IGFIR	AKT	0	0	0
IGFIR	ERK	0	0	0
IGFIR	GSK3B	0	0	0
IGFIR	IGFIR	0	0	0
IGFIR	IKKB	0	0	0
IGFIR	IRS1	0.6425	-0.91751	1.3466
IGFIR	MEK	0	0	0
IGFIR	p70S6K	0	0	0
IKKB	AKT	0	0	0
IKKB	ERK	0.77212	-0.49527	1.2983
IKKB	GSK3B	0	0	0
IKKB	IGFIR	0	0	0
IKKB	IKKB	0	0	0
IKKB	IRS1	0	0	0
IKKB	MEK	0	0	0
IKKB	p70S6K	0	0	0
IRS1	AKT	0.71087	-0.081609	1.3194
IRS1	ERK	0	0	0
IRS1	GSK3B	0	0	0
IRS1	IGFIR	0	0	0
IRS1	IKKB	0	0	0
IRS1	IRS1	0	0	0
IRS1	MEK	0.46132	-0.083342	1.0789
IRS1	p70S6K	0	0	0
MEK	AKT	0	0	0
MEK	ERK	0.7135	0.13085	1.208
MEK	GSK3B	0	0	0
MEK	IGFIR	0	0	0
MEK	IKKB	0	0	0
MEK	IRS1	0	0	0
MEK	MEK	0	0	0
MEK	p70S6K	0	0	0
p70S6K	AKT	0	0	0
p70S6K	ERK	0	0	0
p70S6K	GSK3B	0	0	0
p70S6K	IGFIR	0	0	0
p70S6K	IKKB	0	0	0
p70S6K	IRS1	0.59269	0.2917	1.0768
p70S6K	MEK	0	0	0
p70S6K	p70S6K	0	0	0
