AKT	IKBi	-1.5339	FALSE
AKT	MEKi	-1.1671	FALSE
AKT	PI3Ki	-1.6494	TRUE
AKT	GSK3i	-1.4067	FALSE
ERK	IKBi	1.1837	FALSE
ERK	MEKi	0.93396	FALSE
ERK	PI3Ki	1.1242	FALSE
ERK	GSK3i	0.86871	FALSE
GSK3B	IKBi	0.53499	FALSE
GSK3B	MEKi	0.36361	FALSE
GSK3B	PI3Ki	0.5546	FALSE
GSK3B	GSK3i	-0.068803	TRUE
IGFIR	IKBi	-1.632	FALSE
IGFIR	MEKi	-1.6024	FALSE
IGFIR	PI3Ki	-1.6163	FALSE
IGFIR	GSK3i	-1.5972	FALSE
IKKB	IKBi	-0.52624	TRUE
IKKB	MEKi	-0.38772	FALSE
IKKB	PI3Ki	-0.62769	FALSE
IKKB	GSK3i	-0.11905	FALSE
IRS1	IKBi	0.97686	FALSE
IRS1	MEKi	0.7181	FALSE
IRS1	PI3Ki	0.93308	FALSE
IRS1	GSK3i	0.64332	FALSE
MEK	IKBi	0.46699	FALSE
MEK	MEKi	0.91946	TRUE
MEK	PI3Ki	0.48704	FALSE
MEK	GSK3i	0.4091	FALSE
p70S6K	IKBi	0.84204	FALSE
p70S6K	MEKi	0.80365	FALSE
p70S6K	PI3Ki	0.7733	FALSE
p70S6K	GSK3i	0.39775	FALSE
