AKT	AKT	0	0	0
AKT	ERK	0	0	0
AKT	GSK3B	0.75167	0.2197	1.3864
AKT	IGFIR	0	0	0
AKT	IKKB	0.78714	-0.37735	1.4236
AKT	IRS1	0.60896	-0.18299	1.1007
AKT	MEK	0.52613	-0.24981	1.1599
AKT	p70S6K	0.73563	0.19997	1.2581
ERK	AKT	0.76415	-0.27254	1.4237
ERK	ERK	0	0	0
ERK	GSK3B	0.72642	-0.11316	1.3795
ERK	IGFIR	0	0	0
ERK	IKKB	0.72588	-0.12483	1.3285
ERK	IRS1	0.58398	-0.02485	1.0722
ERK	MEK	0.53436	0.27407	1.2239
ERK	p70S6K	0.77707	0.32758	1.3143
GSK3B	AKT	0	0	0
GSK3B	ERK	0	0	0
GSK3B	GSK3B	0	0	0
GSK3B	IGFIR	0	0	0
GSK3B	IKKB	0	0	0
GSK3B	IRS1	0	0	0
GSK3B	MEK	0	0	0
GSK3B	p70S6K	0	0	0
IGFIR	AKT	0	0	0
IGFIR	ERK	0	0	0
IGFIR	GSK3B	0	0	0
IGFIR	IGFIR	0	0	0
IGFIR	IKKB	0	0	0
IGFIR	IRS1	0.60856	-0.14809	1.0869
IGFIR	MEK	0	0	0
IGFIR	p70S6K	0	0	0
IKKB	AKT	0	0	0
IKKB	ERK	0.71431	0.031538	1.2443
IKKB	GSK3B	0	0	0
IKKB	IGFIR	0	0	0
IKKB	IKKB	0	0	0
IKKB	IRS1	0	0	0
IKKB	MEK	0	0	0
IKKB	p70S6K	0	0	0
IRS1	AKT	0.82096	-0.96302	1.4922
IRS1	ERK	0	0	0
IRS1	GSK3B	0	0	0
IRS1	IGFIR	0	0	0
IRS1	IKKB	0	0	0
IRS1	IRS1	0	0	0
IRS1	MEK	0.54363	0.2366	1.2348
IRS1	p70S6K	0	0	0
MEK	AKT	0	0	0
MEK	ERK	0.71698	0.17167	1.2234
MEK	GSK3B	0	0	0
MEK	IGFIR	0	0	0
MEK	IKKB	0	0	0
MEK	IRS1	0	0	0
MEK	MEK	0	0	0
MEK	p70S6K	0	0	0
p70S6K	AKT	0	0	0
p70S6K	ERK	0	0	0
p70S6K	GSK3B	0	0	0
p70S6K	IGFIR	0	0	0
p70S6K	IKKB	0	0	0
p70S6K	IRS1	0.58843	-0.084437	1.0779
p70S6K	MEK	0	0	0
p70S6K	p70S6K	0	0	0
