AKT	AKT	0	0	0
AKT	ERK	0	0	0
AKT	GSK3B	0.26317	0.0047134	0.5472
AKT	IGFIR	0	0	0
AKT	IKKB	0.70636	-0.034006	0.91277
AKT	IRS1	0.75706	-0.053184	0.92173
AKT	MEK	0.91028	-0.07447	1.03
AKT	p70S6K	0.24769	0.0049467	0.52591
ERK	AKT	0.9626	-0.53382	1.0627
ERK	ERK	0	0	0
ERK	GSK3B	0.28396	-0.058642	0.57919
ERK	IGFIR	0	0	0
ERK	IKKB	0.97538	-0.34904	1.0683
ERK	IRS1	0.8462	0.21812	0.98011
ERK	MEK	0.8152	0.30182	0.98662
ERK	p70S6K	0.26356	0.02136	0.5446
GSK3B	AKT	0	0	0
GSK3B	ERK	0	0	0
GSK3B	GSK3B	0	0	0
GSK3B	IGFIR	0	0	0
GSK3B	IKKB	0	0	0
GSK3B	IRS1	0	0	0
GSK3B	MEK	0	0	0
GSK3B	p70S6K	0	0	0
IGFIR	AKT	0	0	0
IGFIR	ERK	0	0	0
IGFIR	GSK3B	0	0	0
IGFIR	IGFIR	0	0	0
IGFIR	IKKB	0	0	0
IGFIR	IRS1	0.93685	0.43547	1.0314
IGFIR	MEK	0	0	0
IGFIR	p70S6K	0	0	0
IKKB	AKT	0	0	0
IKKB	ERK	0.98593	-0.77079	1.0589
IKKB	GSK3B	0	0	0
IKKB	IGFIR	0	0	0
IKKB	IKKB	0	0	0
IKKB	IRS1	0	0	0
IKKB	MEK	0	0	0
IKKB	p70S6K	0	0	0
IRS1	AKT	0.98866	-0.87898	1.0812
IRS1	ERK	0	0	0
IRS1	GSK3B	0	0	0
IRS1	IGFIR	0	0	0
IRS1	IKKB	0	0	0
IRS1	IRS1	0	0	0
IRS1	MEK	0.99012	0.4116	1.0729
IRS1	p70S6K	0	0	0
MEK	AKT	0	0	0
MEK	ERK	0.67934	-0.27523	0.90002
MEK	GSK3B	0	0	0
MEK	IGFIR	0	0	0
MEK	IKKB	0	0	0
MEK	IRS1	0	0	0
MEK	MEK	0	0	0
MEK	p70S6K	0	0	0
p70S6K	AKT	0	0	0
p70S6K	ERK	0	0	0
p70S6K	GSK3B	0	0	0
p70S6K	IGFIR	0	0	0
p70S6K	IKKB	0	0	0
p70S6K	IRS1	0.98792	0.5248	1.0609
p70S6K	MEK	0	0	0
p70S6K	p70S6K	0	0	0
